Change Component Designator: Old Designator=C? New Designator=C2
Change Component Designator: Old Designator=D? New Designator=D1
Change Component Designator: Old Designator=F? New Designator=F1
Change Component Designator: Old Designator=FER? New Designator=FER1
Change Component Designator: Old Designator=TVS? New Designator=TVS1
