Change Component Designator: Old Designator=C29 New Designator=C30
Change Component Designator: Old Designator=C30 New Designator=C29
Change Component Designator: Old Designator=X16 New Designator=X17
