Change Physical Footprint: Designator=*1 Old Footprint=LQFP-100 New Footprint=LQFP-100
Change Physical Footprint: Designator=AIR+ Old Footprint=CONN_MATE-N-LOCK_VERT_2x2M New Footprint=CONN_MATE-N-LOCK_VERT_2x2M
Change Physical Footprint: Designator=AIR- Old Footprint=CONN_MATE-N-LOCK_VERT_2x2M New Footprint=CONN_MATE-N-LOCK_VERT_2x2M
Change Physical Footprint: Designator=BMS_OK Old Footprint=LED_0603 New Footprint=LED_0603
Change Physical Footprint: Designator=C4 Old Footprint=TCAP_2917 New Footprint=TCAP_2917
Change Physical Footprint: Designator=C5 Old Footprint=CAP_0603 New Footprint=CAP_0603
Change Physical Footprint: Designator=C6 Old Footprint=TCAP_2917 New Footprint=TCAP_2917
Change Physical Footprint: Designator=C7 Old Footprint=CAP_0603 New Footprint=CAP_0603
Change Physical Footprint: Designator=C8 Old Footprint=CAP_ELEC_radial_5.5 New Footprint=CAP_ELEC_radial_5.5
Change Physical Footprint: Designator=C9 Old Footprint=CAP_0603 New Footprint=CAP_0603
Change Physical Footprint: Designator=C10 Old Footprint=CAP_1210 New Footprint=CAP_1210
Change Physical Footprint: Designator=C11 Old Footprint=CAP_1210 New Footprint=CAP_1210
Change Physical Footprint: Designator=C12 Old Footprint=CAP_1206 New Footprint=CAP_1206
Change Physical Footprint: Designator=C13 Old Footprint=CAP_1206 New Footprint=CAP_1206
Change Physical Footprint: Designator=C14 Old Footprint=CAP_0603 New Footprint=CAP_0603
Change Physical Footprint: Designator=C15 Old Footprint=CAP_0603 New Footprint=CAP_0603
Change Physical Footprint: Designator=C16 Old Footprint=CAP_0603 New Footprint=CAP_0603
Change Physical Footprint: Designator=C17 Old Footprint=CAP_0603 New Footprint=CAP_0603
Change Physical Footprint: Designator=C18 Old Footprint=CAP_ELEC_radial_5.5 New Footprint=CAP_ELEC_radial_5.5
Change Physical Footprint: Designator=C19 Old Footprint=CAP_1210 New Footprint=CAP_1210
Change Physical Footprint: Designator=C20 Old Footprint=CAP_1210 New Footprint=CAP_1210
Change Physical Footprint: Designator=C21 Old Footprint=CAP_1206 New Footprint=CAP_1206
Change Physical Footprint: Designator=C22 Old Footprint=CAP_1206 New Footprint=CAP_1206
Change Physical Footprint: Designator=C23 Old Footprint=CAP_1206 New Footprint=CAP_1206
Change Physical Footprint: Designator=C24 Old Footprint=CAP_0603 New Footprint=CAP_0603
Change Physical Footprint: Designator=C25 Old Footprint=CAP_0603 New Footprint=CAP_0603
Change Physical Footprint: Designator=C26 Old Footprint=CAP_0603 New Footprint=CAP_0603
Change Physical Footprint: Designator=C27 Old Footprint=CAP_0805 New Footprint=CAP_0805
Change Physical Footprint: Designator=C28 Old Footprint=CAP_0603 New Footprint=CAP_0603
Change Physical Footprint: Designator=C29 Old Footprint=CAP_0603 New Footprint=CAP_0603
Change Physical Footprint: Designator=C30 Old Footprint=CAP_0603 New Footprint=CAP_0603
Change Physical Footprint: Designator=C31 Old Footprint=CAP_0603 New Footprint=CAP_0603
Change Physical Footprint: Designator=C32 Old Footprint=CAP_0603 New Footprint=CAP_0603
Change Physical Footprint: Designator=C33 Old Footprint=CAP_0603 New Footprint=CAP_0603
Change Physical Footprint: Designator=C34 Old Footprint=CAP_0603 New Footprint=CAP_0603
Change Physical Footprint: Designator=C35 Old Footprint=CAP_0603 New Footprint=CAP_0603
Change Physical Footprint: Designator=C36 Old Footprint=CAP_0603 New Footprint=CAP_0603
Change Physical Footprint: Designator=C37 Old Footprint=CAP_1206 New Footprint=CAP_1206
Change Physical Footprint: Designator=C38 Old Footprint=CAP_0603 New Footprint=CAP_0603
Change Physical Footprint: Designator=C39 Old Footprint=CAP_0603 New Footprint=CAP_0603
Change Physical Footprint: Designator=C40 Old Footprint=CAP_0603 New Footprint=CAP_0603
Change Physical Footprint: Designator=C41 Old Footprint=CAP_0603 New Footprint=CAP_0603
Change Physical Footprint: Designator=C42 Old Footprint=CAP_0603 New Footprint=CAP_0603
Change Physical Footprint: Designator=C43 Old Footprint=CAP_0603 New Footprint=CAP_0603
Change Physical Footprint: Designator=C44 Old Footprint=CAP_0805 New Footprint=CAP_0805
Change Physical Footprint: Designator=C45 Old Footprint=CAP_0805 New Footprint=CAP_0805
Change Physical Footprint: Designator=C46 Old Footprint=CAP_0805 New Footprint=CAP_0805
Change Physical Footprint: Designator=C47 Old Footprint=CAP_0603 New Footprint=CAP_0603
Change Physical Footprint: Designator=C48 Old Footprint=CAP_0805 New Footprint=CAP_0805
Change Physical Footprint: Designator=C49 Old Footprint=CAP_0603 New Footprint=CAP_0603
Change Physical Footprint: Designator=C50 Old Footprint=CAP_0603 New Footprint=CAP_0603
Change Physical Footprint: Designator=C51 Old Footprint=CAP_0603 New Footprint=CAP_0603
Change Physical Footprint: Designator=C52 Old Footprint=CAP_0603 New Footprint=CAP_0603
Change Physical Footprint: Designator=C53 Old Footprint=CAP_0805 New Footprint=CAP_0805
Change Physical Footprint: Designator=C54 Old Footprint=CAP_0603 New Footprint=CAP_0603
Change Physical Footprint: Designator=C55 Old Footprint=CAP_0603 New Footprint=CAP_0603
Change Physical Footprint: Designator=CAN1 Old Footprint=CONN_MATE-N-LOCK_VERT_2x2M New Footprint=CONN_MATE-N-LOCK_VERT_2x2M
Change Physical Footprint: Designator=CAN2 Old Footprint=CONN_MATE-N-LOCK_VERT_2x2M New Footprint=CONN_MATE-N-LOCK_VERT_2x2M
Change Physical Footprint: Designator=CAN3 Old Footprint=CONN_MATE-N-LOCK_VERT_2x2M New Footprint=CONN_MATE-N-LOCK_VERT_2x2M
Change Physical Footprint: Designator=Cooling Old Footprint=CONN_MATE-N-LOCK_VERT_2x2M New Footprint=CONN_MATE-N-LOCK_VERT_2x2M
Change Physical Footprint: Designator=CR1 Old Footprint=4SOJ New Footprint=4SOJ
Change Physical Footprint: Designator=CR2 Old Footprint=CRYSTAL_11.4x4.7 New Footprint=CRYSTAL_11.4x4.7
Change Physical Footprint: Designator=D1 Old Footprint=DO-219AB2 New Footprint=DO-219AB2
Change Physical Footprint: Designator=D2 Old Footprint=DO-219AB2 New Footprint=DO-219AB2
Change Physical Footprint: Designator=D3 Old Footprint=SS14L New Footprint=SS14L
Change Physical Footprint: Designator=DH1 Old Footprint=M4_Distancer_Hole New Footprint=M4_Distancer_Hole
Change Physical Footprint: Designator=DH2 Old Footprint=M4_Distancer_Hole New Footprint=M4_Distancer_Hole
Change Physical Footprint: Designator=DH3 Old Footprint=M4_Distancer_Hole New Footprint=M4_Distancer_Hole
Change Physical Footprint: Designator=DH4 Old Footprint=M4_Distancer_Hole New Footprint=M4_Distancer_Hole
Change Physical Footprint: Designator=DH5 Old Footprint=M4_Distancer_Hole New Footprint=M4_Distancer_Hole
Change Physical Footprint: Designator=DH6 Old Footprint=M4_Distancer_Hole New Footprint=M4_Distancer_Hole
Change Physical Footprint: Designator=Display Old Footprint=CONN_MATE-N-LOCK_VERT_2x2M New Footprint=CONN_MATE-N-LOCK_VERT_2x2M
Change Physical Footprint: Designator=DISSCHARGE Old Footprint=CONN_MATE-N-LOCK_VERT_1x2M New Footprint=CONN_MATE-N-LOCK_VERT_1x2M
Change Physical Footprint: Designator=F1 Old Footprint=FUSE_0603 New Footprint=FUSE_0603
Change Physical Footprint: Designator=F2 Old Footprint=FUSE_0603 New Footprint=FUSE_0603
Change Physical Footprint: Designator=F3 Old Footprint=FUSE_0603 New Footprint=FUSE_0603
Change Physical Footprint: Designator=F4 Old Footprint=FUSE_0603 New Footprint=FUSE_0603
Change Physical Footprint: Designator=F5 Old Footprint=FUSE_0603 New Footprint=FUSE_0603
Change Physical Footprint: Designator=F6 Old Footprint=FUSE_0603 New Footprint=FUSE_0603
Change Physical Footprint: Designator=F7 Old Footprint=FUSE_0603 New Footprint=FUSE_0603
Change Physical Footprint: Designator=F8 Old Footprint=FUSE_0603 New Footprint=FUSE_0603
Change Physical Footprint: Designator=F9 Old Footprint=FUSE_0603 New Footprint=FUSE_0603
Change Physical Footprint: Designator=F10 Old Footprint=FUSE_0603 New Footprint=FUSE_0603
Change Physical Footprint: Designator=F11 Old Footprint=FUSE_0603 New Footprint=FUSE_0603
Change Physical Footprint: Designator=F12 Old Footprint=FUSE_0603 New Footprint=FUSE_0603
Change Physical Footprint: Designator=F13 Old Footprint=CAP_1206 New Footprint=CAP_1206
Change Physical Footprint: Designator=F14 Old Footprint=CAP_1206 New Footprint=CAP_1206
Change Physical Footprint: Designator=FB1 Old Footprint=FER_0603 New Footprint=FER_0603
Change Physical Footprint: Designator=FER1 Old Footprint=FER_1206 New Footprint=FER_1206
Change Physical Footprint: Designator=FT1 Old Footprint=SSOP16-0.635-5X4MM New Footprint=SSOP16-0.635-5X4MM
Change Physical Footprint: Designator=H&T Sensor Old Footprint=CONN_MATE-N-LOCK_VERT_2x2M New Footprint=CONN_MATE-N-LOCK_VERT_2x2M
Change Physical Footprint: Designator=I1 Old Footprint=IND_12.5x12.5 New Footprint=IND_12.5x12.5
Change Physical Footprint: Designator=I2 Old Footprint=IND_7.2x6.65 New Footprint=IND_7.2x6.65
Change Physical Footprint: Designator=IC1 Old Footprint=TSSOP-14 New Footprint=TSSOP-14
Change Physical Footprint: Designator=IC2 Old Footprint=SOT-23-6 New Footprint=SOT-23-6
Change Physical Footprint: Designator=IC3 Old Footprint=SOT-23-6 New Footprint=SOT-23-6
Change Physical Footprint: Designator=IC4 Old Footprint=8-SOIC New Footprint=8-SOIC
Change Physical Footprint: Designator=IC5 Old Footprint=TSSOP-10 New Footprint=TSSOP-10
Change Physical Footprint: Designator=IMD Old Footprint=CONN_MATE-N-LOCK_VERT_2x3M New Footprint=CONN_MATE-N-LOCK_VERT_2x3M
Change Physical Footprint: Designator=IMD_BMS_RST Old Footprint=BUTTON_4PIN New Footprint=BUTTON_4PIN
Change Physical Footprint: Designator=IMD_OK Old Footprint=LED_0603 New Footprint=LED_0603
Change Physical Footprint: Designator=LDO1 Old Footprint=SOT-23-5 New Footprint=SOT-23-5
Change Physical Footprint: Designator=LDO2 Old Footprint=SOT-23-5 New Footprint=SOT-23-5
Change Physical Footprint: Designator=LED1 Old Footprint=LED_0603 New Footprint=LED_0603
Change Physical Footprint: Designator=LED2 Old Footprint=LED_0603 New Footprint=LED_0603
Change Physical Footprint: Designator=LED_AIR+ Old Footprint=LED_0603 New Footprint=LED_0603
Change Physical Footprint: Designator=LED_AIR- Old Footprint=LED_0603 New Footprint=LED_0603
Change Physical Footprint: Designator=LED_PC Old Footprint=LED_0603 New Footprint=LED_0603
Change Physical Footprint: Designator=LV_3V3 Old Footprint=LED_0603 New Footprint=LED_0603
Change Physical Footprint: Designator=LV_5V Old Footprint=LED_0603 New Footprint=LED_0603
Change Physical Footprint: Designator=LV_12V Old Footprint=LED_0603 New Footprint=LED_0603
Change Physical Footprint: Designator=Measuring B. Old Footprint=CONN_MATE-N-LOCK_VERT_2x3M New Footprint=CONN_MATE-N-LOCK_VERT_2x3M
Change Physical Footprint: Designator=Napajanje Old Footprint=CONN_MATE-N-LOCK_VERT_2x2M New Footprint=CONN_MATE-N-LOCK_VERT_2x2M
Change Physical Footprint: Designator=PRECHARGE Old Footprint=CONN_MATE-N-LOCK_VERT_2x2M New Footprint=CONN_MATE-N-LOCK_VERT_2x2M
Change Physical Footprint: Designator=Q1 Old Footprint=SOT-23 New Footprint=SOT-23
Change Physical Footprint: Designator=Q2 Old Footprint=SOT-23 New Footprint=SOT-23
Change Physical Footprint: Designator=Q3 Old Footprint=SOT-23 New Footprint=SOT-23
Change Physical Footprint: Designator=Q4 Old Footprint=SOT-23 New Footprint=SOT-23
Change Physical Footprint: Designator=Q5 Old Footprint=SOT-23 New Footprint=SOT-23
Change Physical Footprint: Designator=Q6 Old Footprint=SOT-23 New Footprint=SOT-23
Change Physical Footprint: Designator=Q7 Old Footprint=SOT-23 New Footprint=SOT-23
Change Physical Footprint: Designator=Q8 Old Footprint=SOT-23 New Footprint=SOT-23
Change Physical Footprint: Designator=Q9 Old Footprint=SOT-23 New Footprint=SOT-23
Change Physical Footprint: Designator=Q10 Old Footprint=SOT-23 New Footprint=SOT-23
Change Physical Footprint: Designator=Q11 Old Footprint=SOT-23 New Footprint=SOT-23
Change Physical Footprint: Designator=Q12 Old Footprint=SOT-23 New Footprint=SOT-23
Change Physical Footprint: Designator=Q13 Old Footprint=SOT-23 New Footprint=SOT-23
Change Physical Footprint: Designator=Q14 Old Footprint=SOT-23 New Footprint=SOT-23
Change Physical Footprint: Designator=Q15 Old Footprint=SOT-23 New Footprint=SOT-23
Change Physical Footprint: Designator=Q16 Old Footprint=SOT-23 New Footprint=SOT-23
Change Physical Footprint: Designator=Q18 Old Footprint=SOT-23 New Footprint=SOT-23
Change Physical Footprint: Designator=Q19 Old Footprint=SOT-23 New Footprint=SOT-23
Change Physical Footprint: Designator=Q20 Old Footprint=SOT-23 New Footprint=SOT-23
Change Physical Footprint: Designator=Q21 Old Footprint=SOT-23 New Footprint=SOT-23
Change Physical Footprint: Designator=Q22 Old Footprint=SOT-23 New Footprint=SOT-23
Change Physical Footprint: Designator=Q23 Old Footprint=SOT-23 New Footprint=SOT-23
Change Physical Footprint: Designator=Q24 Old Footprint=SOT-23 New Footprint=SOT-23
Change Physical Footprint: Designator=Q25 Old Footprint=SOT-23 New Footprint=SOT-23
Change Physical Footprint: Designator=Q26 Old Footprint=SOT-23 New Footprint=SOT-23
Change Physical Footprint: Designator=Q28 Old Footprint=SOT-23 New Footprint=SOT-23
Change Physical Footprint: Designator=Q29 Old Footprint=SOT-23 New Footprint=SOT-23
Change Physical Footprint: Designator=Q30 Old Footprint=SOT-23 New Footprint=SOT-23
Change Physical Footprint: Designator=Q31 Old Footprint=SOT-23 New Footprint=SOT-23
Change Physical Footprint: Designator=Q32 Old Footprint=SOT-23 New Footprint=SOT-23
Change Physical Footprint: Designator=Q33 Old Footprint=SOT-23 New Footprint=SOT-23
Change Physical Footprint: Designator=Q34 Old Footprint=SOT-23 New Footprint=SOT-23
Change Physical Footprint: Designator=R2 Old Footprint=RES_0603 New Footprint=RES_0603
Change Physical Footprint: Designator=R3 Old Footprint=RES_0603 New Footprint=RES_0603
Change Physical Footprint: Designator=R4 Old Footprint=RES_0603 New Footprint=RES_0603
Change Physical Footprint: Designator=R5 Old Footprint=RES_0603 New Footprint=RES_0603
Change Physical Footprint: Designator=R6 Old Footprint=RES_0603 New Footprint=RES_0603
Change Physical Footprint: Designator=R8 Old Footprint=RES_0603 New Footprint=RES_0603
Change Physical Footprint: Designator=R9 Old Footprint=RES_0603 New Footprint=RES_0603
Change Physical Footprint: Designator=R10 Old Footprint=RES_0603 New Footprint=RES_0603
Change Physical Footprint: Designator=R11 Old Footprint=RES_0603 New Footprint=RES_0603
Change Physical Footprint: Designator=R12 Old Footprint=RES_0603 New Footprint=RES_0603
Change Physical Footprint: Designator=R14 Old Footprint=RES_0603 New Footprint=RES_0603
Change Physical Footprint: Designator=R15 Old Footprint=RES_0603 New Footprint=RES_0603
Change Physical Footprint: Designator=R16 Old Footprint=RES_0603 New Footprint=RES_0603
Change Physical Footprint: Designator=R17 Old Footprint=RES_0603 New Footprint=RES_0603
Change Physical Footprint: Designator=R18 Old Footprint=RES_0603 New Footprint=RES_0603
Change Physical Footprint: Designator=R20 Old Footprint=RES_0603 New Footprint=RES_0603
Change Physical Footprint: Designator=R21 Old Footprint=RES_0603 New Footprint=RES_0603
Change Physical Footprint: Designator=R22 Old Footprint=RES_0603 New Footprint=RES_0603
Change Physical Footprint: Designator=R23 Old Footprint=RES_0603 New Footprint=RES_0603
Change Physical Footprint: Designator=R24 Old Footprint=TE_IM New Footprint=TE_IM
Change Physical Footprint: Designator=R25 Old Footprint=TE_IM New Footprint=TE_IM
Change Physical Footprint: Designator=R26 Old Footprint=RES_0603 New Footprint=RES_0603
Change Physical Footprint: Designator=R27 Old Footprint=RES_0603 New Footprint=RES_0603
Change Physical Footprint: Designator=R28 Old Footprint=RES_0603 New Footprint=RES_0603
Change Physical Footprint: Designator=R29 Old Footprint=RES_0603 New Footprint=RES_0603
Change Physical Footprint: Designator=R30 Old Footprint=RES_0603 New Footprint=RES_0603
Change Physical Footprint: Designator=R31 Old Footprint=RES_0603 New Footprint=RES_0603
Change Physical Footprint: Designator=R32 Old Footprint=RES_0603 New Footprint=RES_0603
Change Physical Footprint: Designator=R33 Old Footprint=RES_0603 New Footprint=RES_0603
Change Physical Footprint: Designator=R34 Old Footprint=RES_0603 New Footprint=RES_0603
Change Physical Footprint: Designator=R35 Old Footprint=RES_0603 New Footprint=RES_0603
Change Physical Footprint: Designator=R36 Old Footprint=RES_0603 New Footprint=RES_0603
Change Physical Footprint: Designator=R37 Old Footprint=RES_0603 New Footprint=RES_0603
Change Physical Footprint: Designator=R38 Old Footprint=RES_0603 New Footprint=RES_0603
Change Physical Footprint: Designator=R39 Old Footprint=RES_0603 New Footprint=RES_0603
Change Physical Footprint: Designator=R40 Old Footprint=RES_0603 New Footprint=RES_0603
Change Physical Footprint: Designator=R41 Old Footprint=RES_0603 New Footprint=RES_0603
Change Physical Footprint: Designator=R42 Old Footprint=RES_0603 New Footprint=RES_0603
Change Physical Footprint: Designator=R43 Old Footprint=RES_0603 New Footprint=RES_0603
Change Physical Footprint: Designator=R44 Old Footprint=RES_0603 New Footprint=RES_0603
Change Physical Footprint: Designator=R45 Old Footprint=RES_0603 New Footprint=RES_0603
Change Physical Footprint: Designator=R46 Old Footprint=RES_1206 New Footprint=RES_1206
Change Physical Footprint: Designator=R47 Old Footprint=RES_0603 New Footprint=RES_0603
Change Physical Footprint: Designator=R48 Old Footprint=RES_0603 New Footprint=RES_0603
Change Physical Footprint: Designator=R49 Old Footprint=RES_0603 New Footprint=RES_0603
Change Physical Footprint: Designator=R50 Old Footprint=RES_0603 New Footprint=RES_0603
Change Physical Footprint: Designator=R51 Old Footprint=RES_0603 New Footprint=RES_0603
Change Physical Footprint: Designator=R52 Old Footprint=RES_1206 New Footprint=RES_1206
Change Physical Footprint: Designator=R53 Old Footprint=RES_0805 New Footprint=RES_0805
Change Physical Footprint: Designator=R54 Old Footprint=RES_0805 New Footprint=RES_0805
Change Physical Footprint: Designator=R55 Old Footprint=RES_0603 New Footprint=RES_0603
Change Physical Footprint: Designator=R56 Old Footprint=RES_0805 New Footprint=RES_0805
Change Physical Footprint: Designator=R57 Old Footprint=RES_0805 New Footprint=RES_0805
Change Physical Footprint: Designator=R58 Old Footprint=RES_0603 New Footprint=RES_0603
Change Physical Footprint: Designator=R59 Old Footprint=RES_0603 New Footprint=RES_0603
Change Physical Footprint: Designator=R60 Old Footprint=RES_0603 New Footprint=RES_0603
Change Physical Footprint: Designator=R61 Old Footprint=RES_0805 New Footprint=RES_0805
Change Physical Footprint: Designator=R62 Old Footprint=RES_0603 New Footprint=RES_0603
Change Physical Footprint: Designator=R63 Old Footprint=RES_0603 New Footprint=RES_0603
Change Physical Footprint: Designator=R64 Old Footprint=RES_0603 New Footprint=RES_0603
Change Physical Footprint: Designator=R65 Old Footprint=RES_0603 New Footprint=RES_0603
Change Physical Footprint: Designator=R66 Old Footprint=RES_0603 New Footprint=RES_0603
Change Physical Footprint: Designator=R67 Old Footprint=RES_0603 New Footprint=RES_0603
Change Physical Footprint: Designator=R68 Old Footprint=RES_0603 New Footprint=RES_0603
Change Physical Footprint: Designator=R69 Old Footprint=RES_0603 New Footprint=RES_0603
Change Physical Footprint: Designator=R70 Old Footprint=RES_0603 New Footprint=RES_0603
Change Physical Footprint: Designator=R71 Old Footprint=RES_0603 New Footprint=RES_0603
Change Physical Footprint: Designator=R72 Old Footprint=RES_0603 New Footprint=RES_0603
Change Physical Footprint: Designator=R73 Old Footprint=RES_0603 New Footprint=RES_0603
Change Physical Footprint: Designator=R74 Old Footprint=RES_0603 New Footprint=RES_0603
Change Physical Footprint: Designator=R75 Old Footprint=RES_0603 New Footprint=RES_0603
Change Physical Footprint: Designator=R76 Old Footprint=RES_0603 New Footprint=RES_0603
Change Physical Footprint: Designator=R77 Old Footprint=RES_0603 New Footprint=RES_0603
Change Physical Footprint: Designator=R78 Old Footprint=RES_0603 New Footprint=RES_0603
Change Physical Footprint: Designator=R79 Old Footprint=RES_0603 New Footprint=RES_0603
Change Physical Footprint: Designator=RST_BTN Old Footprint=BUTTON_4PIN New Footprint=BUTTON_4PIN
Change Physical Footprint: Designator=S1 Old Footprint=SLIDE SWITCH New Footprint=SLIDE SWITCH
Change Physical Footprint: Designator=SDC_IN_1 Old Footprint=CONN_MATE-N-LOCK_VERT_1x2M New Footprint=CONN_MATE-N-LOCK_VERT_1x2M
Change Physical Footprint: Designator=SDC_IN_2 Old Footprint=CONN_MATE-N-LOCK_VERT_1x2M New Footprint=CONN_MATE-N-LOCK_VERT_1x2M
Change Physical Footprint: Designator=Slave Old Footprint=CONN_MATE-N-LOCK_VERT_2x2M New Footprint=CONN_MATE-N-LOCK_VERT_2x2M
Change Physical Footprint: Designator=TP_3V3 Old Footprint=Testpoint_SMD New Footprint=Testpoint_SMD
Change Physical Footprint: Designator=TP_5V Old Footprint=Testpoint_SMD New Footprint=Testpoint_SMD
Change Physical Footprint: Designator=TP_12V Old Footprint=Testpoint_SMD New Footprint=Testpoint_SMD
Change Physical Footprint: Designator=TSAL Old Footprint=CONN_MATE-N-LOCK_VERT_2x3M New Footprint=CONN_MATE-N-LOCK_VERT_2x3M
Change Physical Footprint: Designator=TVS1 Old Footprint=DO214AA New Footprint=DO214AA
Change Physical Footprint: Designator=TVS2 Old Footprint=DO214AA New Footprint=DO214AA
Change Physical Footprint: Designator=TVS3 Old Footprint=DO214AA New Footprint=DO214AA
Change Physical Footprint: Designator=X1 Old Footprint=CONN_HEADER_M_1x6 New Footprint=CONN_HEADER_M_1x6
Change Physical Footprint: Designator=X2 Old Footprint=USB-C_Receptacle New Footprint=USB-C_Receptacle
