Change Component Designator: OldDesignator=IMD_BMS_RST1 NewDesignator=IMD_BMS_RST
Change Component Designator: OldDesignator=RST_BTN1 NewDesignator=RST_BTN
Added Member To Class: ClassName=Communication Member=Component UART_TX Green
Added Member To Class: ClassName=BMS Master Member=Component X? 2x3M
Added Member To Class: ClassName=BMS Master Member=Component X? 1x4M
Added Member To Class: ClassName=BMS Master Member=Component X? 1x4M
Added Member To Class: ClassName=BMS Master Member=Component X? 1x4M
Added Member To Class: ClassName=BMS Master Member=Component X? 2x3M
Added Member To Class: ClassName=BMS Master Member=Component X? 1x4M
Added Member To Class: ClassName=BMS Master Member=Component X? 1x4M
Added Member To Class: ClassName=BMS Master Member=Component X? 1x4M
Added Room: Name=BMS Master
Added Room: Name=Communication
Added Room: Name=Microcontroller
Added Room: Name=Power Scheme
Added Room: Name=Relay Control
Added Room: Name=SDC Logic
