Added Pin To Net: NetName=5V Pin=C1-2
Added Pin To Net: NetName=5V Pin=IC1-2
Added Pin To Net: NetName=5V Pin=IC1-4
Added Pin To Net: NetName=5V Pin=IC1-10
Added Pin To Net: NetName=5V Pin=IC1-12
Added Pin To Net: NetName=5V Pin=IC1-14
Added Pin To Net: NetName=5V Pin=R41-2
Added Pin To Net: NetName=5V Pin=R42-2
Added Pin To Net: NetName=5V Pin=R43-2
Added Pin To Net: NetName=5V Pin=R53-2
Added Pin To Net: NetName=5V Pin=X8-2
