Removed Pin From Net: NetName=I2C_SDA Pin=*1-66
Removed Pin From Net: NetName=I2C_SCLK Pin=*1-67
Added Pin To Net: NetName=I2C_SCLK Pin=*1-92
Added Pin To Net: NetName=I2C_SDA Pin=*1-93
Added Pin To Net: NetName=LV_12V_PRT Pin=R24-6
Added Room: Name=BMS Master
Added Room: Name=Communication
Added Room: Name=Microcontroller
Added Room: Name=Power Scheme
Added Room: Name=Relay Control
Added Room: Name=SDC Logic
