Removed Pin From Net: NetName=uC_nRST Pin=R44-1
Removed Pin From Net: NetName=3V3 Pin=R44-2
Removed Member From Class: ClassName=Microcontroller Member=R44
Added Room: Name=BMS Master
Added Room: Name=Communication
Added Room: Name=Microcontroller
Added Room: Name=Power Scheme
Added Room: Name=Relay Control
Added Room: Name=SDC Logic
