Removed Pin From Net: NetName=LV_12V_PRT Pin=C3-1
Removed Pin From Net: NetName=LV_12V_PRT Pin=FER1-2
Removed Pin From Net: NetName=LV_12V_PRT Pin=Q1-2
Removed Pin From Net: NetName=LV_12V_PRT Pin=Q6-2
Removed Pin From Net: NetName=LV_12V_PRT Pin=Q11-2
Added Pin To Net: NetName=5V Pin=C2-2
Added Pin To Net: NetName=LV_12V_PRT Pin=C3-1
Added Pin To Net: NetName=5V Pin=C9-1
Added Pin To Net: NetName=5V Pin=C10-1
Added Pin To Net: NetName=LV_12V_PRT Pin=FER1-2
Added Pin To Net: NetName=5V Pin=I1-2
Added Pin To Net: NetName=5V Pin=IC1-2
Added Pin To Net: NetName=5V Pin=IC1-4
Added Pin To Net: NetName=5V Pin=IC1-10
Added Pin To Net: NetName=5V Pin=IC1-12
Added Pin To Net: NetName=5V Pin=IC1-14
Added Pin To Net: NetName=5V Pin=Measuring B.-2
Added Pin To Net: NetName=LV_12V_PRT Pin=Q1-2
Added Pin To Net: NetName=LV_12V_PRT Pin=Q6-2
Added Pin To Net: NetName=LV_12V_PRT Pin=Q11-2
Added Pin To Net: NetName=5V Pin=R30-2
Added Pin To Net: NetName=5V Pin=R31-2
Added Pin To Net: NetName=5V Pin=R32-2
Added Pin To Net: NetName=5V Pin=R41-2
