Removed Pin From Net: NetName=CAN1_N Pin=CAN1-3
Removed Pin From Net: NetName=CAN1_P Pin=CAN1-4
Removed Pin From Net: NetName=CAN1_N Pin=CAN2-3
Removed Pin From Net: NetName=CAN1_P Pin=CAN2-4
Removed Pin From Net: NetName=CAN1_N Pin=CAN3-3
Removed Pin From Net: NetName=CAN1_P Pin=CAN3-4
Change Component Footprint: Designator=Measuring B. Old Footprint=CONN_MATE-N-LOCK_R/A_2x2M New Footprint=CONN_MATE-N-LOCK_R/A_2x3M
Change Component Comment : Designator=Measuring B. Old Comment=1x4M New Comment=2x3M
Change component parameters: Designator = "Measuring B." ("Measuring B."); Footprint = "CONN_MATE-N-LOCK_R/A_2x2M"; UniqueID = "\FKOUCYXP" ("\FKOUCYXP")
Change component parameters (AddParameter): Name = "ComponentLink1Description"; Value = "New link"; VariantName = "[No Variations]"
Change component parameters (AddParameter): Name = "ComponentLink1URL"; Value = ""; VariantName = "[No Variations]"
Change component parameters (AddParameter): Name = "configuration & pole"; Value = "2x3M"; VariantName = "[No Variations]"
Change component parameters (AddParameter): Name = "Dielectric strength"; Value = "/"; VariantName = "[No Variations]"
Change component parameters (AddParameter): Name = "Manufacturer"; Value = "TE Connectivity AMP Connectors"; VariantName = "[No Variations]"
Change component parameters (AddParameter): Name = "Manufacturer part number"; Value = "1-770969-0"; VariantName = "[No Variations]"
Change component parameters (AddParameter): Name = "Mating contact part number"; Value = "/"; VariantName = "[No Variations]"
Change component parameters (AddParameter): Name = "Mating housing part number"; Value = "A25573-ND"; VariantName = "[No Variations]"
Change component parameters (AddParameter): Name = "Package"; Value = "Bulk"; VariantName = "[No Variations]"
Change component parameters (AddParameter): Name = "Pitch"; Value = "0.163" (4.14mm)"; VariantName = "[No Variations]"
Change component parameters (AddParameter): Name = "Supplier"; Value = "Digi-Key"; VariantName = "[No Variations]"
Change component parameters (AddParameter): Name = "Supplier Part Number"; Value = "A32475-ND"; VariantName = "[No Variations]"
Change component parameters (AddParameter): Name = "Type"; Value = "Header"; VariantName = "[No Variations]"
Added Pin To Net: NetName=CAN1_P Pin=CAN1-3
Added Pin To Net: NetName=CAN1_N Pin=CAN1-4
Added Pin To Net: NetName=CAN1_P Pin=CAN2-3
Added Pin To Net: NetName=CAN1_N Pin=CAN2-4
Added Pin To Net: NetName=CAN1_P Pin=CAN3-3
Added Pin To Net: NetName=CAN1_N Pin=CAN3-4
Added Pin To Net: NetName=I2C_SCLK Pin=Measuring B.-6
Added Net: Name=I2C_SCLK
Added Pin To Net: NetName=I2C_SDA Pin=Measuring B.-5
Added Net: Name=I2C_SDA
Added Room: Name=BMS Master
Added Room: Name=Communication
Added Room: Name=Microcontroller
Added Room: Name=Power Scheme
Added Room: Name=Relay Control
Added Room: Name=SDC Logic
