Change Component Designator: Old Designator=Q1N New Designator=Q3
Change Component Designator: Old Designator=Q1P New Designator=Q2
Change Component Designator: Old Designator=Q2 New Designator=Q4
Change Component Designator: Old Designator=Q2N New Designator=Q7
Change Component Designator: Old Designator=Q2P New Designator=Q5
Change Component Designator: Old Designator=Q3 New Designator=Q6
Change Component Designator: Old Designator=Q3N New Designator=Q9
Change Component Designator: Old Designator=Q3P New Designator=Q8
Change Component Designator: Old Designator=R1 New Designator=R2
Change Component Designator: Old Designator=R2 New Designator=R5
Change Component Designator: Old Designator=R3 New Designator=R8
Change Component Designator: Old Designator=R4 New Designator=R1
Change Component Designator: Old Designator=R5 New Designator=R3
Change Component Designator: Old Designator=R6 New Designator=R4
Change Component Designator: Old Designator=R7 New Designator=R6
Change Component Designator: Old Designator=R8 New Designator=R7
